Data Wrangling – is415-g1t5-project
…
# A tibble: 7 × 6
  state    district category type  date       crimes
  <chr>    <chr>    <chr>    <chr> <date>      <dbl>
1 Malaysia All      assault  all   2016-01-01  22327
2 Malaysia All      assault  all   2017-01-01  21366
3 Malaysia All      assault  all   2018-01-01  16902
4 Malaysia All      assault  all   2019-01-01  16489
5 Malaysia All      assault  all   2020-01-01  13279
6 Malaysia All      assault  all   2021-01-01  11495
7 Malaysia All      assault  all   2022-01-01  10348

# Assault by type (entire M'sia)
crime_sf[8:56,]

# A tibble: 49 × 6
   state    district category type           date       crimes
   <chr>    <chr>    <chr>    <chr>          <date>      <dbl>
 1 Malaysia All      assault  causing_injury 2016-01-01   5531
 2 Malaysia All      assault  causing_injury 2017-01-01   5024
 3 Malaysia All      assault  causing_injury 2018-01-01   4660
 4 Malaysia All      assault  causing_injury 2019-01-01   4712
 5 Malaysia All      assault  causing_injury 2020-01-01   4118
 6 Malaysia All      assault  causing_injury 2021-01-01   4063
 7 Malaysia All      assault  causing_injury 2022-01-01   3807
 8 Malaysia All      assault  murder         2016-01-01    456
 9 Malaysia All      assault  murder         2017-01-01    379
10 Malaysia All      assault  murder         2018-01-01    323
# ℹ 39 more rows
…
# A tibble: 7 × 6
  state    district category type  date       crimes
  <chr>    <chr>    <chr>    <chr> <date>      <dbl>
1 Malaysia All      property all   2016-01-01  90028
2 Malaysia All      property all   2017-01-01  77804
3 Malaysia All      property all   2018-01-01  71760
4 Malaysia All      property all   2019-01-01  66967
5 Malaysia All      property all   2020-01-01  52344
6 Malaysia All      property all   2021-01-01  41479
7 Malaysia All      property all   2022-01-01  40465

# Property by type (entire M'sia)
crime_sf[64:98,]

# A tibble: 35 × 6
   state    district category type        date       crimes
   <chr>    <chr>    <chr>    <chr>       <date>      <dbl>
 1 Malaysia All      property break_in    2016-01-01  18760
 2 Malaysia All      property break_in    2017-01-01  16201
 3 Malaysia All      property break_in    2018-01-01  15742
 4 Malaysia All      property break_in    2019-01-01  16497
 5 Malaysia All      property break_in    2020-01-01  14040
 6 Malaysia All      property break_in    2021-01-01  11352
 7 Malaysia All      property break_in    2022-01-01  10585
 8 Malaysia All      property theft_other 2016-01-01  22857
 9 Malaysia All      property theft_other 2017-01-01  19444
10 Malaysia All      property theft_other 2018-01-01  20065
# ℹ 25 more rows
…
